Data Transformation • RTraining
…
pivot_longer

解决这个问题很简单，我们可以使用tidyr::pivot_longer()来进行处理

pew %>% pivot_longer(cols = where(is.numeric), values_to = 'n', names_to = 'income')

#> # A tibble: 180 x 3
#>    religion income                 n
#>    <chr>    <chr>              <int>
#>  1 Agnostic <$10k                 27
#>  2 Agnostic $10-20k               34
#>  3 Agnostic $20-30k               60
#>  4 Agnostic $30-40k               81
#>  5 Agnostic $40-50k               76
#>  6 Agnostic $50-75k              137
#>  7 Agnostic $75-100k             122
#>  8 Agnostic $100-150k            109
#>  9 Agnostic >150k                 84
#> 10 Agnostic Don't know/refused    96
#> # ... with 170 more rows
…
大家可以讨论一下

Hint: f = female, u = unknown, 1524 = 15-24

同时思考一下怎么将年龄和性别分开（stringr::str_sub）

pivot_longer

和上一个数据集一样，使用tidyr::pivot_longer()函数，将所有的变量变成列。

tb %>% 
  pivot_longer(cols = m04:fu, names_to = 'sexage', values_to = 'cases')

#> # A tibble: 115,380 x 4
#>    iso2   year sexage cases
#>    <chr> <int> <chr>  <int>
#>  1 AD     1989 m04       NA
#>  2 AD     1989 m514      NA
#>  3 AD     1989 m014      NA
#>  4 AD     1989 m1524     NA
#>  5 AD     1989 m2534     NA
#>  6 AD     1989 m3544     NA
#>  7 AD     1989 m4554     NA
#>  8 AD     1989 m5564     NA
#>  9 AD     1989 m65       NA
#> 10 AD     1989 mu        NA
#> # ... with 115,370 more rows
…
这个数据集中有多少个变量？

大家可以讨论一下

Hint: TMIN = minimum temperature, id = weather station identifier

继续使用tidyr::pivot_longer()函数

pivot_longer

weather %>% 
  pivot_longer(cols = d1:d31, values_to = 'value', names_to = 'day')

#> # A tibble: 682 x 6
#>    id       year month element day   value
#>    <chr>   <int> <int> <chr>   <chr> <dbl>
#>  1 MX17004  2010     1 tmax    d1       NA
#>  2 MX17004  2010     1 tmax    d2       NA
#>  3 MX17004  2010     1 tmax    d3       NA
#>  4 MX17004  2010     1 tmax    d4       NA
#>  5 MX17004  2010     1 tmax    d5       NA
#>  6 MX17004  2010     1 tmax    d6       NA
#>  7 MX17004  2010     1 tmax    d7       NA
#>  8 MX17004  2010     1 tmax    d8       NA
#>  9 MX17004  2010     1 tmax    d9       NA
#> 10 MX17004  2010     1 tmax    d10      NA
#> # ... with 672 more rows
stringr::str_replace()

这样就结束了吗？

其实可以变得更好的。

day应该是数字；tmax，tmin应该分为2列

使用stringr::str_replace()将day变为数字

weather %>% 
  pivot_longer(cols = d1:d31, values_to = 'value', names_to = 'day') %>%
  mutate(day = as.integer(str_replace(day, 'd', '')))

#> # A tibble: 682 x 6
#>    id       year month element   day value
#>    <chr>   <int> <int> <chr>   <int> <dbl>
#>  1 MX17004  2010     1 tmax        1    NA
#>  2 MX17004  2010     1 tmax        2    NA
#>  3 MX17004  2010     1 tmax        3    NA
#>  4 MX17004  2010     1 tmax        4    NA
#>  5 MX17004  2010     1 tmax        5    NA
#>  6 MX17004  2010     1 tmax        6    NA
#>  7 MX17004  2010     1 tmax        7    NA
#>  8 MX17004  2010     1 tmax        8    NA
#>  9 MX17004  2010     1 tmax        9    NA
#> 10 MX17004  2010     1 tmax       10    NA
#> # ... with 672 more rows
…
pivot_wider

回到刚才的weather数据集，如何将tmax和tmin分为两列呢？

weather %>% 
  pivot_longer(cols = d1:d31, values_to = 'value', names_to = 'day') %>%
  mutate(day = as.integer(str_replace(day, 'd', ''))) %>%
  pivot_wider(names_from = element, values_from = value)

#> # A tibble: 341 x 6
#>    id       year month   day  tmax  tmin
#>    <chr>   <int> <int> <int> <dbl> <dbl>
#>  1 MX17004  2010     1     1    NA    NA
#>  2 MX17004  2010     1     2    NA    NA
#>  3 MX17004  2010     1     3    NA    NA
#>  4 MX17004  2010     1     4    NA    NA
#>  5 MX17004  2010     1     5    NA    NA
#>  6 MX17004  2010     1     6    NA    NA
#>  7 MX17004  2010     1     7    NA    NA
#>  8 MX17004  2010     1     8    NA    NA
#>  9 MX17004  2010     1     9    NA    NA
#> 10 MX17004  2010     1    10    NA    NA
#> # ... with 331 more rows
…
整理

轮到你们了！

用之前学到的东西去处理billboard数据集

处理思路

将数据转换成Long-format

处理week数据，转换成数字

处理time数据，转换成秒

#> # A tibble: 24,092 x 7
#>     year artist track         date.entered  rank date       duartion            
#>    <int> <chr>  <chr>         <chr>        <int> <date>     <Duration>          
#>  1  2000 2 Pac  Baby Don't C~ 2000-02-26      87 2000-02-26 262s (~4.37 minutes)
#>  2  2000 2 Pac  Baby Don't C~ 2000-02-26      82 2000-03-04 262s (~4.37 minutes)
#>  3  2000 2 Pac  Baby Don't C~ 2000-02-26      72 2000-03-11 262s (~4.37 minutes)
#>  4  2000 2 Pac  Baby Don't C~ 2000-02-26      77 2000-03-18 262s (~4.37 minutes)
#>  5  2000 2 Pac  Baby Don't C~ 2000-02-26      87 2000-03-25 262s (~4.37 minutes)
#>  6  2000 2 Pac  Baby Don't C~ 2000-02-26      94 2000-04-01 262s (~4.37 minutes)
#>  7  2000 2 Pac  Baby Don't C~ 2000-02-26      99 2000-04-08 262s (~4.37 minutes)
#>  8  2000 2 Pac  Baby Don't C~ 2000-02-26      NA 2000-04-15 262s (~4.37 minutes)
#>  9  2000 2 Pac  Baby Don't C~ 2000-02-26      NA 2000-04-22 262s (~4.37 minutes)
#> 10  2000 2 Pac  Baby Don't C~ 2000-02-26      NA 2000-04-29 262s (~4.37 minutes)
#> # ... with 24,082 more rows
…
